Code_FPGA_DAC_ADC/brain_to_computer/PCM1802/Ramp generator from data 16 bits by FPGA (Cyclone IV) and DAC (PCM5102)/simulation/qsim/signal.msim.vcd
$comment
	File created using the following command:
		vcd file signal.msim.vcd -direction
$end
$date
	Thu Oct 22 17:37:34 2020
$end
$version
	ModelSim Version 10.1d
$end
$timescale
	1ps
$end
$scope module generator_vlg_vec_tst $end
$var reg 1 ! CLK $end
$var wire 1 " BCK $end
$var wire 1 # DIN $end
$var wire 1 $ LCK $end
$var wire 1 % sampler $end
$scope module i1 $end
$var wire 1 & gnd $end
$var wire 1 ' vcc $end
$var wire 1 ( unknown $end
$var tri1 1 ) devclrn $end
$var tri1 1 * devpor $end
$var tri1 1 + devoe $end
$var wire 1 , BCK~output_o $end
$var wire 1 - DIN~output_o $end
$var wire 1 . LCK~output_o $end
$var wire 1 / CLK~input_o $end
$var wire 1 0 CLK~inputclkctrl_outclk $end
$var wire 1 1 U0|count[1]~1_combout $end
$var wire 1 2 U0|count~0_combout $end
$var wire 1 3 U0|tmp~0_combout $end
$var wire 1 4 U0|tmp~feeder_combout $end
$var wire 1 5 U0|tmp~q $end
$var wire 1 6 U0|tmp~clkctrl_outclk $end
$var wire 1 7 U2|count[0]~4_combout $end
$var wire 1 8 U2|count~1_combout $end
$var wire 1 9 U2|count~0_combout $end
$var wire 1 : U2|count~2_combout $end
$var wire 1 ; U1|count~2_combout $end
$var wire 1 < U1|count~0_combout $end
$var wire 1 = U1|count~3_combout $end
$var wire 1 > U1|count~1_combout $end
$var wire 1 ? U1|Add0~0_combout $end
$var wire 1 @ U1|data_16bit_vector[0]~45_combout $end
$var wire 1 A U1|data_16bit_vector[1]~15_combout $end
$var wire 1 B U1|data_16bit_vector[1]~16 $end
$var wire 1 C U1|data_16bit_vector[2]~17_combout $end
$var wire 1 D U1|data_16bit_vector[2]~18 $end
$var wire 1 E U1|data_16bit_vector[3]~19_combout $end
$var wire 1 F U1|data_16bit_vector[3]~20 $end
$var wire 1 G U1|data_16bit_vector[4]~21_combout $end
$var wire 1 H U1|data_16bit_vector[4]~22 $end
$var wire 1 I U1|data_16bit_vector[5]~23_combout $end
$var wire 1 J U1|data_16bit_vector[5]~24 $end
$var wire 1 K U1|data_16bit_vector[6]~25_combout $end
$var wire 1 L U1|data_16bit_vector[6]~26 $end
$var wire 1 M U1|data_16bit_vector[7]~27_combout $end
$var wire 1 N U2|Mux0~0_combout $end
$var wire 1 O U2|Mux0~1_combout $end
$var wire 1 P U2|Mux0~7_combout $end
$var wire 1 Q U2|Mux0~8_combout $end
$var wire 1 R U1|data_16bit_vector[7]~28 $end
$var wire 1 S U1|data_16bit_vector[8]~29_combout $end
$var wire 1 T U1|data_16bit_vector[8]~30 $end
$var wire 1 U U1|data_16bit_vector[9]~31_combout $end
$var wire 1 V U1|data_16bit_vector[9]~32 $end
$var wire 1 W U1|data_16bit_vector[10]~33_combout $end
$var wire 1 X U1|data_16bit_vector[10]~34 $end
$var wire 1 Y U1|data_16bit_vector[11]~35_combout $end
$var wire 1 Z U1|data_16bit_vector[11]~36 $end
$var wire 1 [ U1|data_16bit_vector[12]~37_combout $end
$var wire 1 \ U1|data_16bit_vector[12]~38 $end
$var wire 1 ] U1|data_16bit_vector[13]~39_combout $end
$var wire 1 ^ U1|data_16bit_vector[13]~40 $end
$var wire 1 _ U1|data_16bit_vector[14]~41_combout $end
$var wire 1 ` U2|Mux0~2_combout $end
$var wire 1 a U2|Mux0~3_combout $end
$var wire 1 b U1|data_16bit_vector[14]~42 $end
$var wire 1 c U1|data_16bit_vector[15]~43_combout $end
$var wire 1 d U2|Mux0~4_combout $end
$var wire 1 e U2|Mux0~5_combout $end
$var wire 1 f U2|Mux0~6_combout $end
$var wire 1 g U2|Mux0~9_combout $end
$var wire 1 h U2|serial_out~q $end
$var wire 1 i U3|Add0~0_combout $end
$var wire 1 j U3|lr~0_combout $end
$var wire 1 k U3|lr~q $end
$var wire 1 l U1|data_16bit_vector [15] $end
$var wire 1 m U1|data_16bit_vector [14] $end
$var wire 1 n U1|data_16bit_vector [13] $end
$var wire 1 o U1|data_16bit_vector [12] $end
$var wire 1 p U1|data_16bit_vector [11] $end
$var wire 1 q U1|data_16bit_vector [10] $end
$var wire 1 r U1|data_16bit_vector [9] $end
$var wire 1 s U1|data_16bit_vector [8] $end
$var wire 1 t U1|data_16bit_vector [7] $end
$var wire 1 u U1|data_16bit_vector [6] $end
$var wire 1 v U1|data_16bit_vector [5] $end
$var wire 1 w U1|data_16bit_vector [4] $end
$var wire 1 x U1|data_16bit_vector [3] $end
$var wire 1 y U1|data_16bit_vector [2] $end
$var wire 1 z U1|data_16bit_vector [1] $end
$var wire 1 { U1|data_16bit_vector [0] $end
$var wire 1 | U2|count [4] $end
$var wire 1 } U2|count [3] $end
$var wire 1 ~ U2|count [2] $end
$var wire 1 !! U2|count [1] $end
$var wire 1 "! U2|count [0] $end
$var wire 1 #! U1|count [4] $end
$var wire 1 $! U1|count [3] $end
$var wire 1 %! U1|count [2] $end
$var wire 1 &! U1|count [1] $end
$var wire 1 '! U1|count [0] $end
$var wire 1 (! U0|count [2] $end
$var wire 1 )! U0|count [1] $end
$var wire 1 *! U0|count [0] $end
$upscope $end
$upscope $end
$enddefinitions $end
#0
$dumpvars
0!
0"
0#
0$
x%
0&
1'
x(
1)
1*
1+
0,
0-
0.
0/
00
01
12
03
04
05
06
17
08
09
0:
1;
0<
1=
0>
0?
0@
0A
0B
0C
1D
0E
0F
0G
1H
0I
0J
0K
1L
0M
0N
0O
0P
0Q
0R
0S
1T
0U
0V
0W
1X
0Y
0Z
0[
1\
0]
0^
0_
0`
0a
1b
0c
0d
0e
0f
0g
0h
0i
0j
0k
0{
0z
0y
0x
0w
0v
0u
0t
0s
0r
0q
0p
0o
0n
0m
0l
0"!
0!!
0~
0}
z|
0'!
0&!
0%!
0$!
z#!
0*!
0)!
z(!
$end
#500
1!
1/
10
0%
1*!
02
11
#1000
0!
0/
00
1%
#1500
1!
1/
10
0%
0*!
1)!
12
#2000
0!
0/
00
1%
#2500
1!
1/
10
0%
1*!
13
01
14
#3000
0!
0/
00
1%
#3500
1!
1/
10
0%
0)!
15
16
02
11
1,
1"
#4000
0!
0/
00
1%
#4500
1!
1/
10
0%
0*!
1)!
12
#5000
0!
0/
00
1%
#5500
1!
1/
10
0%
1*!
03
01
04
#6000
0!
0/
00
1%
#6500
1!
1/
10
0%
0)!
05
06
02
11
0,
0"
1"!
1&!
1'!
18
07
0=
#7000
0!
0/
00
1%
#7500
1!
1/
10
0%
0*!
1)!
12
#8000
0!
0/
00
1%
#8500
1!
1/
10
0%
1*!
13
01
14
#9000
0!
0/
00
1%
#9500
1!
1/
10
0%
0)!
15
16
02
11
1,
1"
#10000
0!
0/
00
1%
#10500
1!
1/
10
0%
0*!
1)!
12
#11000
0!
0/
00
1%
#11500
1!
1/
10
0%
1*!
03
01
04
#12000
0!
0/
00
1%
#12500
1!
1/
10
0%
0)!
05
06
02
11
0,
0"
0"!
1!!
0'!
17
1>
1=
0;
#13000
0!
0/
00
1%
#13500
1!
1/
10
0%
0*!
1)!
12
#14000
0!
0/
00
1%
#14500
1!
1/
10
0%
1*!
13
01
14
#15000
0!
0/
00
1%
#15500
1!
1/
10
0%
0)!
15
16
02
11
1,
1"
#16000
0!
0/
00
1%
#16500
1!
1/
10
0%
0*!
1)!
12
#17000
0!
0/
00
1%
#17500
1!
1/
10
0%
1*!
03
01
04
#18000
0!
0/
00
1%
#18500
1!
1/
10
0%
0)!
05
06
02
11
0,
0"
1"!
0&!
1'!
1%!
19
08
07
0=
#19000
0!
0/
00
1%
#19500
1!
1/
10
0%
0*!
1)!
12
#20000
0!
0/
00
1%
#20500
1!
1/
10
0%
1*!
13
01
14
#21000
0!
0/
00
1%
#21500
1!
1/
10
0%
0)!
15
16
02
11
1,
1"
#22000
0!
0/
00
1%
#22500
1!
1/
10
0%
0*!
1)!
12
#23000
0!
0/
00
1%
#23500
1!
1/
10
0%
1*!
03
01
04
#24000
0!
0/
00
1%
#24500
1!
1/
10
0%
0)!
05
06
02
11
0,
0"
0"!
0!!
1~
0'!
17
1=
1;
#25000
0!
0/
00
1%
#25500
1!
1/
10
0%
0*!
1)!
12
#26000
0!
0/
00
1%
#26500
1!
1/
10
0%
1*!
13
01
14
#27000
0!
0/
00
1%
#27500
1!
1/
10
0%
0)!
15
16
02
11
1,
1"
#28000
0!
0/
00
1%
#28500
1!
1/
10
0%
0*!
1)!
12
#29000
0!
0/
00
1%
#29500
1!
1/
10
0%
1*!
03
01
04
#30000
0!
0/
00
1%
#30500
1!
1/
10
0%
0)!
05
06
02
11
0,
0"
1"!
1&!
1'!
18
07
0=
#31000
0!
0/
00
1%
#31500
1!
1/
10
0%
0*!
1)!
12
#32000
0!
0/
00
1%
#32500
1!
1/
10
0%
1*!
13
01
14
#33000
0!
0/
00
1%
#33500
1!
1/
10
0%
0)!
15
16
02
11
1,
1"
#34000
0!
0/
00
1%
#34500
1!
1/
10
0%
0*!
1)!
12
#35000
0!
0/
00
1%
#35500
1!
1/
10
0%
1*!
03
01
04
#36000
0!
0/
00
1%
#36500
1!
1/
10
0%
0)!
05
06
02
11
0,
0"
0"!
1!!
0'!
17
1d
1`
1P
1N
0>
1=
1<
0;
#37000
0!
0/
00
1%
#37500
1!
1/
10
0%
0*!
1)!
12
#38000
0!
0/
00
1%
#38500
1!
1/
10
0%
1*!
13
01
14
#39000
0!
0/
00
1%
#39500
1!
1/
10
0%
0)!
15
16
02
11
1,
1"
#40000
0!
0/
00
1%
#40500
1!
1/
10
0%
0*!
1)!
12
#41000
0!
0/
00
1%
#41500
1!
1/
10
0%
1*!
03
01
04
#42000
0!
0/
00
1%
#42500
1!
1/
10
0%
0)!
05
06
02
11
0,
0"
1"!
0&!
1$!
1'!
0%!
1:
09
08
07
0=
#43000
0!
0/
00
1%
#43500
1!
1/
10
0%
0*!
1)!
12
#44000
0!
0/
00
1%
#44500
1!
1/
10
0%
1*!
13
01
14
#45000
0!
0/
00
1%
#45500
1!
1/
10
0%
0)!
15
16
02
11
1,
1"
#46000
0!
0/
00
1%
#46500
1!
1/
10
0%
0*!
1)!
12
#47000
0!
0/
00
1%
#47500
1!
1/
10
0%
1*!
03
01
04
#48000
0!
0/
00
1%
#48500
1!
1/
10
0%
0)!
05
06
02
11
0,
0"
0"!
0!!
0~
1}
0'!
17
0d
1a
0`
1Q
0P
0N
1e
1O
1=
1;
0e
0a
1g
0Q
0O
0g
#49000
0!
0/
00
1%
#49500
1!
1/
10
0%
0*!
1)!
12
#50000
0!
0/
00
1%
#50500
1!
1/
10
0%
1*!
13
01
14
#51000
0!
0/
00
1%
#51500
1!
1/
10
0%
0)!
15
16
02
11
1,
1"
#52000
0!
0/
00
1%
#52500
1!
1/
10
0%
0*!
1)!
12
#53000
0!
0/
00
1%
#53500
1!
1/
10
0%
1*!
03
01
04
#54000
0!
0/
00
1%
#54500
1!
1/
10
0%
0)!
05
06
02
11
0,
0"
1"!
1&!
1'!
1f
18
07
0=
#55000
0!
0/
00
1%
#55500
1!
1/
10
0%
0*!
1)!
12
#56000
0!
0/
00
1%
#56500
1!
1/
10
0%
1*!
13
01
14
#57000
0!
0/
00
1%
#57500
1!
1/
10
0%
0)!
15
16
02
11
1,
1"
#58000
0!
0/
00
1%
#58500
1!
1/
10
0%
0*!
1)!
12
#59000
0!
0/
00
1%
#59500
1!
1/
10
0%
1*!
03
01
04
#60000
0!
0/
00
1%
#60500
1!
1/
10
0%
0)!
05
06
02
11
0,
0"
0"!
1!!
0'!
0f
17
1>
1=
0;
#61000
0!
0/
00
1%
#61500
1!
1/
10
0%
0*!
1)!
12
#62000
0!
0/
00
1%
#62500
1!
1/
10
0%
1*!
13
01
14
#63000
0!
0/
00
1%
#63500
1!
1/
10
0%
0)!
15
16
02
11
1,
1"
#64000
0!
0/
00
1%
#64500
1!
1/
10
0%
0*!
1)!
12
#65000
0!
0/
00
1%
#65500
1!
1/
10
0%
1*!
03
01
04
#66000
0!
0/
00
1%
#66500
1!
1/
10
0%
0)!
05
06
02
11
0,
0"
1"!
0&!
1'!
1%!
1f
19
08
07
0=
#67000
0!
0/
00
1%
#67500
1!
1/
10
0%
0*!
1)!
12
#68000
0!
0/
00
1%
#68500
1!
1/
10
0%
1*!
13
01
14
#69000
0!
0/
00
1%
#69500
1!
1/
10
0%
0)!
15
16
02
11
1,
1"
#70000
0!
0/
00
1%
#70500
1!
1/
10
0%
0*!
1)!
12
#71000
0!
0/
00
1%
#71500
1!
1/
10
0%
1*!
03
01
04
#72000
0!
0/
00
1%
#72500
1!
1/
10
0%
0)!
05
06
02
11
0,
0"
0"!
0!!
1~
0'!
0f
17
1=
1;
#73000
0!
0/
00
1%
#73500
1!
1/
10
0%
0*!
1)!
12
#74000
0!
0/
00
1%
#74500
1!
1/
10
0%
1*!
13
01
14
#75000
0!
0/
00
1%
#75500
1!
1/
10
0%
0)!
15
16
02
11
1,
1"
#76000
0!
0/
00
1%
#76500
1!
1/
10
0%
0*!
1)!
12
#77000
0!
0/
00
1%
#77500
1!
1/
10
0%
1*!
03
01
04
#78000
0!
0/
00
1%
#78500
1!
1/
10
0%
0)!
05
06
02
11
0,
0"
1"!
1&!
1'!
1f
18
07
0=
#79000
0!
0/
00
1%
#79500
1!
1/
10
0%
0*!
1)!
12
#80000
0!
0/
00
1%
#80500
1!
1/
10
0%
1*!
13
01
14
#81000
0!
0/
00
1%
#81500
1!
1/
10
0%
0)!
15
16
02
11
1,
1"
#82000
0!
0/
00
1%
#82500
1!
1/
10
0%
0*!
1)!
12
#83000
0!
0/
00
1%
#83500
1!
1/
10
0%
1*!
03
01
04
#84000
0!
0/
00
1%
#84500
1!
1/
10
0%
0)!
05
06
02
11
0,
0"
0"!
1!!
0'!
0f
17
1d
1`
1P
1N
1?
0>
0<
0;
1@
#85000
0!
0/
00
1%
#85500
1!
1/
10
0%
0*!
1)!
12
#86000
0!
0/
00
1%
#86500
1!
1/
10
0%
1*!
13
01
14
#87000
0!
0/
00
1%
#87500
1!
1/
10
0%
0)!
15
16
02
11
1,
1"
#88000
0!
0/
00
1%
#88500
1!
1/
10
0%
0*!
1)!
12
#89000
0!
0/
00
1%
#89500
1!
1/
10
0%
1*!
03
01
04
#90000
0!
0/
00
1%
#90500
1!
1/
10
0%
0)!
05
06
02
11
0,
0"
1"!
0&!
0$!
0%!
1{
1i
1f
0:
09
08
07
0?
1=
1;
1Q
1A
0@
1j
1g
1@
#91000
0!
0/
00
1%
#91500
1!
1/
10
0%
0*!
1)!
12
#92000
0!
0/
00
1%
#92500
1!
1/
10
0%
1*!
13
01
14
#93000
0!
0/
00
1%
#93500
1!
1/
10
0%
0)!
15
16
02
11
1,
1"
#94000
0!
0/
00
1%
#94500
1!
1/
10
0%
0*!
1)!
12
#95000
0!
0/
00
1%
#95500
1!
1/
10
0%
1*!
03
01
04
#96000
0!
0/
00
1%
#96500
1!
1/
10
0%
0)!
05
06
02
11
0,
0"
0"!
0!!
0~
0}
1&!
1'!
1h
1k
0i
0f
17
0d
1a
0`
0P
0N
1e
1O
0=
0j
1-
1.
1#
1$
1j
0g
0e
1f
0a
0Q
0O
0f
1g
0g
#97000
0!
0/
00
1%
#97500
1!
1/
10
0%
0*!
1)!
12
#98000
0!
0/
00
1%
#98500
1!
1/
10
0%
1*!
13
01
14
#99000
0!
0/
00
1%
#99500
1!
1/
10
0%
0)!
15
16
02
11
1,
1"
#100000
0!
0/
00
1%
#100500
1!
1/
10
0%
0*!
1)!
12
#101000
0!
0/
00
1%
#101500
1!
1/
10
0%
1*!
03
01
04
#102000
0!
0/
00
1%
#102500
1!
1/
10
0%
0)!
05
06
02
11
0,
0"
1"!
0'!
0h
18
07
1>
1=
0;
0-
0#
#103000
0!
0/
00
1%
#103500
1!
1/
10
0%
0*!
1)!
12
#104000
0!
0/
00
1%
#104500
1!
1/
10
0%
1*!
13
01
14
#105000
0!
0/
00
1%
#105500
1!
1/
10
0%
0)!
15
16
02
11
1,
1"
#106000
0!
0/
00
1%
#106500
1!
1/
10
0%
0*!
1)!
12
#107000
0!
0/
00
1%
#107500
1!
1/
10
0%
1*!
03
01
04
#108000
0!
0/
00
1%
#108500
1!
1/
10
0%
0)!
05
06
02
11
0,
0"
0"!
1!!
0&!
1'!
1%!
17
0=
#109000
0!
0/
00
1%
#109500
1!
1/
10
0%
0*!
1)!
12
#110000
0!
0/
00
1%
#110500
1!
1/
10
0%
1*!
13
01
14
#111000
0!
0/
00
1%
#111500
1!
1/
10
0%
0)!
15
16
02
11
1,
1"
#112000
0!
0/
00
1%
#112500
1!
1/
10
0%
0*!
1)!
12
#113000
0!
0/
00
1%
#113500
1!
1/
10
0%
1*!
03
01
04
#114000
0!
0/
00
1%
#114500
1!
1/
10
0%
0)!
05
06
02
11
0,
0"
1"!
0'!
19
08
07
1=
1;
#115000
0!
0/
00
1%
#115500
1!
1/
10
0%
0*!
1)!
12
#116000
0!
0/
00
1%
#116500
1!
1/
10
0%
1*!
13
01
14
#117000
0!
0/
00
1%
#117500
1!
1/
10
0%
0)!
15
16
02
11
1,
1"
#118000
0!
0/
00
1%
#118500
1!
1/
10
0%
0*!
1)!
12
#119000
0!
0/
00
1%
#119500
1!
1/
10
0%
1*!
03
01
04
#120000
0!
0/
00
1%
#120500
1!
1/
10
0%
0)!
05
06
02
11
0,
0"
0"!
0!!
1~
1&!
1'!
17
0=
#121000
0!
0/
00
1%
#121500
1!
1/
10
0%
0*!
1)!
12
#122000
0!
0/
00
1%
#122500
1!
1/
10
0%
1*!
13
01
14
#123000
0!
0/
00
1%
#123500
1!
1/
10
0%
0)!
15
16
02
11
1,
1"
#124000
0!
0/
00
1%
#124500
1!
1/
10
0%
0*!
1)!
12
#125000
0!
0/
00
1%
#125500
1!
1/
10
0%
1*!
03
01
04
#126000
0!
0/
00
1%
#126500
1!
1/
10
0%
0)!
05
06
02
11
0,
0"
1"!
0'!
18
07
0>
1=
1<
0;
#127000
0!
0/
00
1%
#127500
1!
1/
10
0%
0*!
1)!
12
#128000
0!
0/
00
1%
#128500
1!
1/
10
0%
1*!
13
01
14
#129000
0!
0/
00
1%
#129500
1!
1/
10
0%
0)!
15
16
02
11
1,
1"
#130000
0!
0/
00
1%
#130500
1!
1/
10
0%
0*!
1)!
12
#131000
0!
0/
00
1%
#131500
1!
1/
10
0%
1*!
03
01
04
#132000
0!
0/
00
1%
#132500
1!
1/
10
0%
0)!
05
06
02
11
0,
0"
0"!
1!!
0&!
1$!
1'!
0%!
17
1d
1`
1P
1N
0=
1Q
#133000
0!
0/
00
1%
#133500
1!
1/
10
0%
0*!
1)!
12
#134000
0!
0/
00
1%
#134500
1!
1/
10
0%
1*!
13
01
14
#135000
0!
0/
00
1%
#135500
1!
1/
10
0%
0)!
15
16
02
11
1,
1"
#136000
0!
0/
00
1%
#136500
1!
1/
10
0%
0*!
1)!
12
#137000
0!
0/
00
1%
#137500
1!
1/
10
0%
1*!
03
01
04
#138000
0!
0/
00
1%
#138500
1!
1/
10
0%
0)!
05
06
02
11
0,
0"
1"!
0'!
1:
09
08
07
1=
1;
#139000
0!
0/
00
1%
#139500
1!
1/
10
0%
0*!
1)!
12
#140000
0!
0/
00
1%
#140500
1!
1/
10
0%
1*!
13
01
14
#141000
0!
0/
00
1%
#141500
1!
1/
10
0%
0)!
15
16
02
11
1,
1"
#142000
0!
0/
00
1%
#142500
1!
1/
10
0%
0*!
1)!
12
#143000
0!
0/
00
1%
#143500
1!
1/
10
0%
1*!
03
01
04
#144000
0!
0/
00
1%
#144500
1!
1/
10
0%
0)!
05
06
02
11
0,
0"
0"!
0!!
0~
1}
1&!
1'!
17
0d
1a
0`
0P
0N
1e
1O
0=
0e
0a
0Q
0O
1g
0g
#145000
0!
0/
00
1%
#145500
1!
1/
10
0%
0*!
1)!
12
#146000
0!
0/
00
1%
#146500
1!
1/
10
0%
1*!
13
01
14
#147000
0!
0/
00
1%
#147500
1!
1/
10
0%
0)!
15
16
02
11
1,
1"
#148000
0!
0/
00
1%
#148500
1!
1/
10
0%
0*!
1)!
12
#149000
0!
0/
00
1%
#149500
1!
1/
10
0%
1*!
03
01
04
#150000
0!
0/
00
1%
#150500
1!
1/
10
0%
0)!
05
06
02
11
0,
0"
1"!
0'!
1f
18
07
1>
1=
0;
#151000
0!
0/
00
1%
#151500
1!
1/
10
0%
0*!
1)!
12
#152000
0!
0/
00
1%
#152500
1!
1/
10
0%
1*!
13
01
14
#153000
0!
0/
00
1%
#153500
1!
1/
10
0%
0)!
15
16
02
11
1,
1"
#154000
0!
0/
00
1%
#154500
1!
1/
10
0%
0*!
1)!
12
#155000
0!
0/
00
1%
#155500
1!
1/
10
0%
1*!
03
01
04
#156000
0!
0/
00
1%
#156500
1!
1/
10
0%
0)!
05
06
02
11
0,
0"
0"!
1!!
0&!
1'!
1%!
0f
17
0=
#157000
0!
0/
00
1%
#157500
1!
1/
10
0%
0*!
1)!
12
#158000
0!
0/
00
1%
#158500
1!
1/
10
0%
1*!
13
01
14
#159000
0!
0/
00
1%
#159500
1!
1/
10
0%
0)!
15
16
02
11
1,
1"
#160000
0!
0/
00
1%
#160500
1!
1/
10
0%
0*!
1)!
12
#161000
0!
0/
00
1%
#161500
1!
1/
10
0%
1*!
03
01
04
#162000
0!
0/
00
1%
#162500
1!
1/
10
0%
0)!
05
06
02
11
0,
0"
1"!
0'!
1f
19
08
07
1=
1;
#163000
0!
0/
00
1%
#163500
1!
1/
10
0%
0*!
1)!
12
#164000
0!
0/
00
1%
#164500
1!
1/
10
0%
1*!
13
01
14
#165000
0!
0/
00
1%
#165500
1!
1/
10
0%
0)!
15
16
02
11
1,
1"
#166000
0!
0/
00
1%
#166500
1!
1/
10
0%
0*!
1)!
12
#167000
0!
0/
00
1%
#167500
1!
1/
10
0%
1*!
03
01
04
#168000
0!
0/
00
1%
#168500
1!
1/
10
0%
0)!
05
06
02
11
0,
0"
0"!
0!!
1~
1&!
1'!
0f
17
0=
#169000
0!
0/
00
1%
#169500
1!
1/
10
0%
0*!
1)!
12
#170000
0!
0/
00
1%
#170500
1!
1/
10
0%
1*!
13
01
14
#171000
0!
0/
00
1%
#171500
1!
1/
10
0%
0)!
15
16
02
11
1,
1"
#172000
0!
0/
00
1%
#172500
1!
1/
10
0%
0*!
1)!
12
#173000
0!
0/
00
1%
#173500
1!
1/
10
0%
1*!
03
01
04
#174000
0!
0/
00
1%
#174500
1!
1/
10
0%
0)!
05
06
02
11
0,
0"
1"!
0'!
1f
18
07
1?
0>
0<
0;
0@
#175000
0!
0/
00
1%
#175500
1!
1/
10
0%
0*!
1)!
12
#176000
0!
0/
00
1%
#176500
1!
1/
10
0%
1*!
13
01
14
#177000
0!
0/
00
1%
#177500
1!
1/
10
0%
0)!
15
16
02
11
1,
1"
#178000
0!
0/
00
1%
#178500
1!
1/
10
0%
0*!
1)!
12
#179000
0!
0/
00
1%
#179500
1!
1/
10
0%
1*!
03
01
04
#180000
0!
0/
00
1%
#180500
1!
1/
10
0%
0)!
05
06
02
11
0,
0"
0"!
1!!
0&!
0$!
0%!
0{
1z
0f
17
1d
1`
1P
1N
0?
1=
1;
1@
1O
0@
1g
#181000
0!
0/
00
1%
#181500
1!
1/
10
0%
0*!
1)!
12
#182000
0!
0/
00
1%
#182500
1!
1/
10
0%
1*!
13
01
14
#183000
0!
0/
00
1%
#183500
1!
1/
10
0%
0)!
15
16
02
11
1,
1"
#184000
0!
0/
00
1%
#184500
1!
1/
10
0%
0*!
1)!
12
#185000
0!
0/
00
1%
#185500
1!
1/
10
0%
1*!
03
01
04
#186000
0!
0/
00
1%
#186500
1!
1/
10
0%
0)!
05
06
02
11
0,
0"
1"!
1&!
1'!
1h
1i
1f
0:
09
08
07
0=
1-
1#
0j
0g
#187000
0!
0/
00
1%
#187500
1!
1/
10
0%
0*!
1)!
12
#188000
0!
0/
00
1%
#188500
1!
1/
10
0%
1*!
13
01
14
#189000
0!
0/
00
1%
#189500
1!
1/
10
0%
0)!
15
16
02
11
1,
1"
#190000
0!
0/
00
1%
#190500
1!
1/
10
0%
0*!
1)!
12
#191000
0!
0/
00
1%
#191500
1!
1/
10
0%
1*!
03
01
04
#192000
0!
0/
00
1%
#192500
1!
1/
10
0%
0)!
05
06
02
11
0,
0"
0"!
0!!
0~
0}
0'!
0h
0k
0i
0f
17
0d
1a
0`
1Q
0P
0N
1e
1g
1>
1=
0;
1j
0-
0.
0#
0$
0j
0g
0e
1f
0a
0Q
0O
0f
1g
0g
#193000
0!
0/
00
1%
#193500
1!
1/
10
0%
0*!
1)!
12
#194000
0!
0/
00
1%
#194500
1!
1/
10
0%
1*!
13
01
14
#195000
0!
0/
00
1%
#195500
1!
1/
10
0%
0)!
15
16
02
11
1,
1"
#196000
0!
0/
00
1%
#196500
1!
1/
10
0%
0*!
1)!
12
#197000
0!
0/
00
1%
#197500
1!
1/
10
0%
1*!
03
01
04
#198000
0!
0/
00
1%
#198500
1!
1/
10
0%
0)!
05
06
02
11
0,
0"
1"!
0&!
1'!
1%!
18
07
0=
#199000
0!
0/
00
1%
#199500
1!
1/
10
0%
0*!
1)!
12
#200000
0!
0/
00
1%
#200500
1!
1/
10
0%
1*!
13
01
14
#201000
0!
0/
00
1%
#201500
1!
1/
10
0%
0)!
15
16
02
11
1,
1"
#202000
0!
0/
00
1%
#202500
1!
1/
10
0%
0*!
1)!
12
#203000
0!
0/
00
1%
#203500
1!
1/
10
0%
1*!
03
01
04
#204000
0!
0/
00
1%
#204500
1!
1/
10
0%
0)!
05
06
02
11
0,
0"
0"!
1!!
0'!
17
1=
1;
#205000
0!
0/
00
1%
#205500
1!
1/
10
0%
0*!
1)!
12
#206000
0!
0/
00
1%
#206500
1!
1/
10
0%
1*!
13
01
14
#207000
0!
0/
00
1%
#207500
1!
1/
10
0%
0)!
15
16
02
11
1,
1"
#208000
0!
0/
00
1%
#208500
1!
1/
10
0%
0*!
1)!
12
#209000
0!
0/
00
1%
#209500
1!
1/
10
0%
1*!
03
01
04
#210000
0!
0/
00
1%
#210500
1!
1/
10
0%
0)!
05
06
02
11
0,
0"
1"!
1&!
1'!
19
08
07
0=
#211000
0!
0/
00
1%
#211500
1!
1/
10
0%
0*!
1)!
12
#212000
0!
0/
00
1%
#212500
1!
1/
10
0%
1*!
13
01
14
#213000
0!
0/
00
1%
#213500
1!
1/
10
0%
0)!
15
16
02
11
1,
1"
#214000
0!
0/
00
1%
#214500
1!
1/
10
0%
0*!
1)!
12
#215000
0!
0/
00
1%
#215500
1!
1/
10
0%
1*!
03
01
04
#216000
0!
0/
00
1%
#216500
1!
1/
10
0%
0)!
05
06
02
11
0,
0"
0"!
0!!
1~
0'!
17
0>
1=
1<
0;
#217000
0!
0/
00
1%
#217500
1!
1/
10
0%
0*!
1)!
12
#218000
0!
0/
00
1%
#218500
1!
1/
10
0%
1*!
13
01
14
#219000
0!
0/
00
1%
#219500
1!
1/
10
0%
0)!
15
16
02
11
1,
1"
#220000
0!
0/
00
1%
#220500
1!
1/
10
0%
0*!
1)!
12
#221000
0!
0/
00
1%
#221500
1!
1/
10
0%
1*!
03
01
04
#222000
0!
0/
00
1%
#222500
1!
1/
10
0%
0)!
05
06
02
11
0,
0"
1"!
0&!
1$!
1'!
0%!
18
07
0=
#223000
0!
0/
00
1%
#223500
1!
1/
10
0%
0*!
1)!
12
#224000
0!
0/
00
1%
#224500
1!
1/
10
0%
1*!
13
01
14
#225000
0!
0/
00
1%
#225500
1!
1/
10
0%
0)!
15
16
02
11
1,
1"
#226000
0!
0/
00
1%
#226500
1!
1/
10
0%
0*!
1)!
12
#227000
0!
0/
00
1%
#227500
1!
1/
10
0%
1*!
03
01
04
#228000
0!
0/
00
1%
#228500
1!
1/
10
0%
0)!
05
06
02
11
0,
0"
0"!
1!!
0'!
17
1d
1`
1P
1N
1=
1;
1O
#229000
0!
0/
00
1%
#229500
1!
1/
10
0%
0*!
1)!
12
#230000
0!
0/
00
1%
#230500
1!
1/
10
0%
1*!
13
01
14
#231000
0!
0/
00
1%
#231500
1!
1/
10
0%
0)!
15
16
02
11
1,
1"
#232000
0!
0/
00
1%
#232500
1!
1/
10
0%
0*!
1)!
12
#233000
0!
0/
00
1%
#233500
1!
1/
10
0%
1*!
03
01
04
#234000
0!
0/
00
1%
#234500
1!
1/
10
0%
0)!
05
06
02
11
0,
0"
1"!
1&!
1'!
1:
09
08
07
0=
#235000
0!
0/
00
1%
#235500
1!
1/
10
0%
0*!
1)!
12
#236000
0!
0/
00
1%
#236500
1!
1/
10
0%
1*!
13
01
14
#237000
0!
0/
00
1%
#237500
1!
1/
10
0%
0)!
15
16
02
11
1,
1"
#238000
0!
0/
00
1%
#238500
1!
1/
10
0%
0*!
1)!
12
#239000
0!
0/
00
1%
#239500
1!
1/
10
0%
1*!
03
01
04
#240000
0!
0/
00
1%
#240500
1!
1/
10
0%
0)!
05
06
02
11
0,
0"
0"!
0!!
0~
1}
0'!
17
0d
1a
0`
1Q
0P
0N
1e
1g
1>
1=
0;
0e
0a
0Q
0O
0g
#241000
0!
0/
00
1%
#241500
1!
1/
10
0%
0*!
1)!
12
#242000
0!
0/
00
1%
#242500
1!
1/
10
0%
1*!
13
01
14
#243000
0!
0/
00
1%
#243500
1!
1/
10
0%
0)!
15
16
02
11
1,
1"
#244000
0!
0/
00
1%
#244500
1!
1/
10
0%
0*!
1)!
12
#245000
0!
0/
00
1%
#245500
1!
1/
10
0%
1*!
03
01
04
#246000
0!
0/
00
1%
#246500
1!
1/
10
0%
0)!
05
06
02
11
0,
0"
1"!
0&!
1'!
1%!
1f
18
07
0=
#247000
0!
0/
00
1%
